index,bbio,bbio_chaud,bbio_eclairage,bbio_froid,cef_chaud,cef_eclairage,cef_ecs,cef_froid,cep,co2,directory,energie_principale,rcr,usage
1,68.9,54.4,6.7,7.8,36.2,1.4,36.2,0,82,17.828399999999995,1957909,gaz,0.55,Logements collectifs
2,53,39.4,6.8,6.8,24.4,1.4,32.4,0,65.7,14.018400000000002,1957909,gaz,0,Logements collectifs
3,57.1,38.9,6.6,11.7,24.9,1.3,32.8,0,66.7,14.236600000000001,1957909,gaz,0,Logements collectifs
4,65.4,63,0,2.5,33.6,1.3,14.8,0,55.4,11.8849,1976132,gaz,0,Logements collectifs
5,35.5,19.3,7,9.2,9.4,1.4,0.7,0,29.9,0.9871000000000001,1996716,elec,0,Logements collectifs
6,75.6,66.3,7,2.3,33.1,1.4,30.7,0,71.5,15.698799999999999,1996830,gaz,0,Logements collectifs
7,50.7,37.4,6.4,6.9,29.1,1.3,22.4,0,59.1,0.2177,1997236,reseau,0.86,Logements collectifs
8,71.5,55,6.3,10.2,27.7,1.3,25.1,0,60.8,12.8337,1999512,gaz,0,Logements collectifs
9,47.9,40.3,6.9,0.8,10.3,1.4,21.8,0,40.2,7.9144999999999985,2002402,gaz,0,Logements collectifs
10,91,77.9,7.2,5.9,37.1,1.4,16.2,0,58.9,13.089699999999999,2003208,gaz,0,Logements collectifs
11,90.9,77.8,7.2,5.9,37,1.4,16.2,0,58.8,13.089699999999999,2003208,gaz,0,Logements collectifs
12,91,77.9,7.2,5.9,37.1,1.4,16.2,0,58.9,13.089699999999999,2003208,gaz,0,Logements collectifs
13,100.2,85.7,7.1,7.4,43.3,1.4,15.7,0,64.8,14.463299999999998,2003208,gaz,0,Logements collectifs
14,100.4,86,7.1,7.3,43.4,1.4,15.7,0,65,14.511899999999999,2003208,gaz,0,Logements collectifs
15,50.2,41.9,7.1,1.2,25.9,1.4,12,0,46.4,9.455,2005890,gaz,0,Logements collectifs
16,53.6,45.3,7,1.4,25.7,1.4,14.1,0,49.4,9.924400000000002,2005890,gaz,0,Logements collectifs
17,65.1,52.9,7.4,4.8,37.1,1.5,18.9,0,64.4,13.5836,2006286,gaz,0,Logements collectifs
18,63.1,50.8,7.3,5,28.8,1.5,19.4,0,55,11.7967,2015089,gaz,0,Logements collectifs
19,30.3,18.6,7.2,4.5,8.4,1.4,0.5,0,25.7,0.8439000000000001,2019309,elec,0,Logements collectifs
20,26.5,15.4,7.1,3.9,6.5,1.4,0.5,0,21.1,0.6938,2019490,elec,0,Logements collectifs
21,30.5,16.8,7.2,6.5,9,1.4,0.7,0,28.1,0.9171,2019513,elec,0,Logements collectifs
23,82.8,74.2,7.3,1.4,30.4,1.5,14.8,0,53.6,10.9793,2022731,gaz,0.38,Logements collectifs
24,88.3,68.7,6,13.6,26.6,1.2,2.6,0,69.9,2.3532,2022739,elec,0,Logements collectifs
25,84.4,70.6,7.3,6.5,36.8,1.5,15.1,0,58,12.793499999999998,2024404,gaz,0.01,Logements collectifs
26,84.2,70.4,7.3,6.5,35.7,1.5,15.1,0,56.9,12.5019,2024404,gaz,0,Logements collectifs
27,84.3,70.4,7.3,6.6,35.7,1.5,15.1,0,56.9,12.5019,2024404,gaz,0,Logements collectifs
28,40.1,24.6,7.1,8.5,11,1.4,0.5,0,31.4,1.0429,2035051,elec,0,Logements collectifs
29,78.9,69,6.9,3,41,1.4,17.6,0,66.4,14.3911,2035572,gaz,0,Logements collectifs
30,61.9,53.1,7.3,1.5,30.6,1.5,14.8,0,53.2,11.216600000000001,2036882,gaz,0,Logements collectifs
31,31.5,17.7,7.4,6.4,11.8,1.5,16.9,0,37.8,7.0196000000000005,2042510,gaz,0,Logements collectifs
33,58.4,42.4,6.1,9.9,25,1.2,18.2,0,49.4,10.5645,2050026,gaz,0,Logements collectifs
34,56.2,40.3,6.3,9.6,23.5,1.3,18.8,0,48.4,10.3528,2050026,gaz,0,Logements collectifs
35,61.8,42.2,6.1,13.5,25,1.2,18.2,0,49.4,10.5645,2050027,gaz,0,Logements collectifs
36,57.2,41.2,6.2,9.8,24.3,1.2,18.2,0,48.7,10.3944,2050027,gaz,0,Logements collectifs
37,67.6,56.3,6.1,5.2,35.2,1.2,23.7,0,64.4,14.309899999999999,2052527,gaz,0,Logements collectifs
38,64.4,53.4,7,4.1,32.7,1.4,4.6,0,50.4,8.990300000000001,2060843,gaz,0,Logements collectifs
39,66.4,57.2,6.9,2.3,33,1.4,16.8,0,55.3,12.158,2068117,gaz,0,Logements collectifs
40,30.3,14.3,6.9,9.2,14.1,1.4,0.1,0,42.1,1.3961999999999999,2071574,elec,0,Logements collectifs
41,80.5,69.6,6.8,4,40.4,1.4,22.4,0,77.4,15.573,2073630,gaz,0,Logements collectifs
42,88.5,71.5,0,17,21.8,1.3,13.7,0,49.1,7.3914,2076568,gaz,0,Logements collectifs
43,60.6,49.6,7.2,3.8,32.2,1.4,18.2,0,58,12.299399999999999,2080507,gaz,0,Logements collectifs
44,28.2,16.7,7.1,4.5,7.2,1.4,14.6,0,36.7,4.2836,2087411,gaz,0,Logements collectifs
45,52.1,44.8,6.8,0.5,23.2,1.4,35.6,0,68.5,14.523600000000004,2087629,gaz,0,Logements collectifs
47,35.5,21,7.1,7.4,8.1,1.4,0.5,0,25.1,0.8266,2095019,elec,0,Logements collectifs
48,45.4,37.2,6.6,1.6,36,1.3,47.7,0,92.4,0.2497,2095144,reseau,0.52,Logements collectifs
49,78,69,6.8,2.2,40.4,1.4,20.3,0,70.7,14.934700000000001,2098346,gaz,0,Logements collectifs
50,52.2,44.5,7.3,0.3,21.7,1.5,23.4,0,55.8,10.5906,2098938,gaz,0.22,Logements collectifs
51,45.1,37.4,7.4,0.3,16.6,1.5,22.9,0,49.9,9.210600000000001,2098938,gaz,0.01,Logements collectifs
52,58,49.9,7,1.1,33.6,1.4,2.2,0,43,8.803600000000001,2102219,gaz,0,Logements collectifs
53,55.8,47,7.4,1.3,12.2,1.5,13.1,0,70.5,2.1684,2102378,elec,0,Logements collectifs
54,32.2,22.8,6.9,2.5,10.8,1.4,13.4,0,72.9,2.2112000000000003,2102378,elec,0.35,Logements collectifs
55,34.6,21.7,7.8,5.1,9.6,1.6,13.3,0,68.8,2.0853,2102378,elec,0.09,Logements collectifs
57,74,65.1,7.1,1.8,41.7,1.4,16.8,0,64.6,14.332,2109241,gaz,0,Logements collectifs
58,26.4,15,7.2,4.2,6.9,1.4,0.3,0,21.6,0.7124,2114424,elec,0,Logements collectifs
59,30.9,19.2,7.3,4.4,7.8,1.5,0.3,0,23.7,0.7839999999999999,2114432,elec,0,Logements collectifs
60,54.7,35.1,6.4,13.2,30.7,1.3,24.8,0,70.1,13.780800000000001,2115746,gaz,0,Logements collectifs
61,69.1,65.1,0,4,37.4,1.6,18.3,0,68,13.1611,2118278,gaz,0,Logements collectifs
62,67.3,50,7.5,9.8,32.6,1.5,20.4,2.2,77.3,0.7201000000000001,2123198,reseau,0.55,Logements collectifs
63,84.8,77.2,7.2,0.3,47.6,1.4,19,0,76.7,16.206599999999998,2124223,gaz,0,Logements collectifs
64,78.1,70.5,7.3,0.3,43.4,1.5,18.8,0,71.5,15.156400000000001,2124223,gaz,0,Logements collectifs
65,77.3,67.7,6.1,3.5,34.7,1.2,26.3,0,70.8,15.000300000000001,2124911,gaz,0,Logements collectifs
66,37.3,26.5,6.8,4,6.7,1.4,0.9,0,23.2,0.7548,2125934,elec,0,Logements collectifs
67,39.3,26.6,7.2,5.5,13.3,1.4,22.7,0,47,8.892,2127609,gaz,0,Logements collectifs
68,50.7,40.3,0,10.4,23.2,1.4,20.4,0,59.9,10.668500000000002,2128741,gaz,0,Logements collectifs
69,45.5,40.2,0,5.3,23.3,1.4,20.4,0,60.4,10.667900000000003,2128741,gaz,0,Logements collectifs
70,49.5,44,0,5.5,26.8,1.4,17.8,0,57.3,10.777700000000001,2128741,gaz,0,Logements collectifs
71,44.7,39.9,0,4.8,23.7,1.4,17.7,0,55.5,10.1041,2128741,gaz,0,Logements collectifs
72,65.7,56.8,6.4,2.5,32.3,1.3,24.4,0,63.6,13.960200000000002,2130098,gaz,0,Logements collectifs
73,69.7,59,6.3,4.5,34.6,1.3,26.7,0,66.5,15.0575,2130098,gaz,0.46,Logements collectifs
74,63.8,54.8,6.5,2.4,32.9,1.3,44.8,0,85.3,0.2177,2130857,reseau,0.17,Logements collectifs
75,73.1,64.6,6.6,1.8,39.4,1.3,43.8,0,89.9,0.18570000000000003,2130857,reseau,0.43,Logements collectifs
76,82.1,72.9,6.7,2.5,43.9,1.3,41.8,0,93.4,0.2177,2130857,reseau,0.73,Logements collectifs
77,58.5,49,6.8,2.6,26.3,1.4,15.9,0,47.6,10.4152,2131004,gaz,0,Logements collectifs
79,36.7,25.9,6.8,4,6.6,1.4,1.1,0,23.3,0.7599,2136806,elec,0,Logements collectifs
81,55.5,44.2,7,4.3,31.5,1.4,36.8,0,76.7,16.559999999999995,2142279,gaz,0,Logements collectifs
82,76,64.6,6.8,4.7,35.5,1.4,9.4,0,51.4,11.0805,2146339,gaz,0,Logements collectifs
83,93.2,81.3,6.7,5.3,45.2,1.3,9.3,0,61.2,13.4128,2146339,gaz,0,Logements collectifs
84,102.3,90.4,6.6,5.3,46,1.3,21.9,0,74,16.656299999999998,2146339,gaz,0,Logements collectifs
85,97.9,85.9,6.5,5.5,46.8,1.3,23.6,0,76.1,17.233099999999997,2146339,gaz,0,Logements collectifs
86,72.5,63.6,6.4,2.5,35.8,1.3,24.4,0,67.1,14.8107,2146610,gaz,0,Logements collectifs
87,74.2,63.5,6.3,4.4,37,1.3,26.7,0,68.9,15.616399999999999,2146610,gaz,0.46,Logements collectifs
88,71.1,59.5,7.4,4.2,31.8,1.5,22.9,0,70.8,13.5852,2146628,gaz,0,Logements collectifs
89,85.4,75.7,6.9,2.9,38.8,1.4,19.7,0,68.2,14.1857,2146836,gaz,0,Logements collectifs
90,56.8,35.6,6.4,14.9,26.9,1.3,24.8,0,66.3,12.8817,2147362,gaz,0,Logements collectifs
91,68.7,59.4,6.8,2.4,38.6,1.4,19.3,0,65.3,13.7171,2147790,gaz,0,Logements collectifs
92,54.7,47.3,7.1,0.4,30.7,1.4,19.6,0,60.1,11.901099999999998,2148792,gaz,0,Logements collectifs
93,59.1,52.7,0,6.3,29,1.5,18.3,0,54,11.6058,2149831,gaz,0,Logements collectifs
94,60,51.8,6.8,1.5,28.4,1.4,30.8,0,66.3,0.21180000000000002,2149892,reseau,0,Logements collectifs
95,61.2,52.8,6.5,1.9,24.7,1.3,15.9,0,48.2,10.060700000000002,2149913,gaz,0,Logements collectifs
96,60.1,51.8,6.6,1.7,25.4,1.3,15.2,0,48.1,10.0607,2149913,gaz,0,Logements collectifs
97,85.4,76.2,6.6,2.6,44.1,1.3,21.4,0,73.1,16.0059,2150197,gaz,0,Logements collectifs
98,48.5,35.4,6.5,6.6,9.7,1.3,1.9,0,31.8,1.0371,2150750,elec,0,Logements collectifs
99,56.1,45.7,6.3,4.1,13.3,1.3,1.4,0,38.1,1.2762,2171529,elec,0,Logements collectifs
100,35.1,16.7,6.6,11.8,15.4,1.3,17.2,0,39.2,7.907299999999999,2172503,gaz,0,Logements collectifs
101,65.4,57.6,6.6,1.2,30.9,1.3,25.6,0,61.5,0.14730000000000001,2173879,reseau,0.58,Logements collectifs
102,83.3,67.1,6.5,9.7,11.4,1.3,2.8,0,44.1,1.4091000000000002,2174028,elec,0,Logements collectifs
104,60.5,50.1,6.8,3.6,31.1,1.4,20.5,0,62.1,12.517500000000002,2177389,gaz,0,Logements collectifs
106,39.5,22.6,7.5,9.4,15.2,1.5,15.3,0,36.9,7.4536,2180882,gaz,0,Logements collectifs
107,38.7,21.1,7.3,10.3,13.6,1.5,15.1,0,34.9,7.0083,2180883,gaz,0,Logements collectifs
108,55,48.4,0,6.6,24,1.4,16.5,0,48.1,9.9785,2181975,gaz,0,Logements collectifs
109,61,53.5,0,7.5,28.4,1.4,19.2,0,55.8,11.693800000000001,2181975,gaz,0,Logements collectifs
110,38.3,25.1,6.9,6.3,12.6,1.4,2.2,0,22.5,3.7347,2183331,gaz,0,Logements collectifs
111,45.2,34.8,6.8,3.7,24.4,1.4,21.9,0,53.4,11.3345,2183555,gaz,0,Logements collectifs
112,70.3,60.7,6.8,2.8,35.6,1.4,16.4,0,65.3,12.282800000000002,2183600,gaz,0,Logements collectifs
113,77.3,68.1,6.9,2.4,36.7,1.4,18.1,0,65.8,13.2761,2183600,gaz,0,Logements collectifs
114,53.7,40.3,7.2,6.2,22.9,1.4,21.1,0,52.5,10.807600000000003,2184464,gaz,0,Logements collectifs
115,64.4,52.9,6.6,5,35.2,1.3,19.1,0,61.5,13.302199999999997,2185126,gaz,0,Logements collectifs
116,77,64.7,6.4,5.8,41.4,1.3,18.2,0,64.9,14.514599999999998,2185126,gaz,0,Logements collectifs
117,45.6,32.9,6.6,6.1,14.2,1.3,1.5,0,43.4,1.4305999999999999,2185473,elec,0,Logements collectifs
118,45.9,30.4,6.7,8.7,15.8,1.3,4.1,0,53.6,1.7388000000000001,2185473,elec,0,Logements collectifs
119,56.3,47,0,9.3,24.1,1.3,20.3,0,55.2,10.968300000000001,2185698,gaz,0,Logements collectifs
120,68.8,39.7,6.8,22.3,27.2,1.4,17.9,0,53.5,10.958700000000002,2186149,gaz,0,Logements collectifs
121,51,34.4,6.3,10.3,5.4,1.3,13.4,0,52.2,1.6007000000000002,2186705,elec,0.13,Logements collectifs
122,76,65.6,6.8,3.6,37.3,1.4,20.8,0,64.9,14.2133,2187557,gaz,0,Logements collectifs
123,45.4,28.4,7,10,11.4,1.4,2.4,0,36.6,1.2044,2187743,elec,0,Logements collectifs
124,34,17.9,7.2,8.9,8.2,1.4,1,0,26.2,0.8605999999999999,2187743,elec,0,Logements collectifs
125,35.5,22.6,7.2,5.7,10.3,1.4,1.2,0,31.1,1.0267000000000002,2187743,elec,0,Logements collectifs
126,70.3,62.2,7.3,0.9,30.3,1.5,15.6,0,53.9,11.3027,2190356,gaz,0.13,Logements collectifs
127,52.6,45.4,6.4,0.8,18.5,1.3,4.8,0,57.1,1.8760000000000001,2192266,elec,0,Logements collectifs
128,35.9,19.4,7.2,9.2,9.1,1.5,7.9,0,45.6,1.4191,2192765,elec,0,Logements collectifs
129,37.8,19.6,7.1,11.1,9.5,1.4,9,0,49.9,1.5473000000000001,2192765,elec,0.07,Logements collectifs
130,42.4,24.2,7.1,11.1,11.6,1.4,9.2,0,54.4,1.7006,2192765,elec,0,Logements collectifs
131,37,19.7,7.1,10.2,9,1.4,8.5,0,47,1.4561,2192765,elec,0.13,Logements collectifs
132,36.5,17.8,7.1,11.6,8.1,1.4,8.6,0,45.1,1.3915,2192765,elec,0,Logements collectifs
133,39.7,24,7.2,8.4,11.6,1.4,6.9,0,48.4,1.5319,2192765,elec,0,Logements collectifs
134,65.4,55.9,6.9,2.5,34.7,1.4,37.3,0,80.2,17.5403,2194827,gaz,0,Logements collectifs
135,93.5,85.5,7.1,0.9,46.8,1.4,29.1,0,86.7,18.182,2195941,gaz,0,Logements collectifs
136,101.6,93.6,6.7,1.2,51.1,1.3,4.9,0,67.4,13.513900000000001,2195941,gaz,0,Logements collectifs
137,99.5,87.8,7.2,4.4,50.6,1.4,9.5,0,65.5,14.639500000000004,2195993,gaz,0,Logements collectifs
138,60.9,47.3,6.2,7.4,25.8,1.2,21.9,0,55.1,11.6738,2197184,gaz,0,Logements collectifs
139,57.1,45.3,6.4,5.4,24.7,1.3,20.4,0,52.1,11.036,2197216,gaz,0,Logements collectifs
140,67.9,54.8,6.3,6.7,30.2,1.3,23.1,0,61,12.9893,2197235,gaz,0,Logements collectifs
141,85.1,72.9,7.4,4.8,38.3,1.5,25,0,72.1,15.471600000000002,2197309,gaz,0,Logements collectifs
142,99,86.3,7.3,5.4,45.9,1.5,23.5,0,78.3,16.9603,2197309,gaz,0,Logements collectifs
143,52.3,38.7,6.7,6.8,21.1,1.4,16.2,0,44.8,9.200999999999999,2197761,gaz,0,Logements collectifs
144,52.9,37.4,6.7,8.8,21.8,1.3,18.6,0,47.8,9.898800000000003,2197761,gaz,0,Logements collectifs
145,87,77.8,6.9,2.3,44.8,1.4,19.8,0,71.6,15.7586,2200086,gaz,0,Logements collectifs
146,80.8,71.6,6.9,2.3,42.7,1.4,19.8,0,69.6,15.272599999999999,2200086,gaz,0,Logements collectifs
147,80.5,71.3,6.9,2.2,41.7,1.4,19.9,0,68.3,15.0232,2200086,gaz,0,Logements collectifs
148,78.7,69.6,7,2.1,39.9,1.4,18.3,0,64.8,14.214799999999999,2200086,gaz,0,Logements collectifs
149,79.1,70,7,2.1,39.7,1.4,18.3,0,64.7,14.190499999999998,2200086,gaz,0,Logements collectifs
150,80.7,71.5,6.9,2.3,41.8,1.4,19.9,0,68.7,15.0539,2200086,gaz,0,Logements collectifs
151,80.1,70.9,7,2.1,40.5,1.4,18.3,0,65.5,14.3606,2200086,gaz,0,Logements collectifs
152,84.4,75.3,7,2.1,42.3,1.4,18.3,0,67.3,14.8223,2200086,gaz,0,Logements collectifs
153,87.2,77.9,6.9,2.4,44.8,1.4,19.8,0,71.6,15.7586,2200086,gaz,0,Logements collectifs
154,70.2,56,6.2,8.1,30.8,1.2,18,0,55.5,11.9624,2203072,gaz,0,Logements collectifs
155,60.7,50.5,6.6,3.6,28.4,1.3,19.5,0,54.9,11.764899999999999,2203072,gaz,0,Logements collectifs
156,63.8,55.8,6.7,1.4,34.4,1.3,17.4,0,58.7,12.7062,2203415,gaz,0,Logements collectifs
158,65.5,56.7,7.6,1.2,35.8,1.5,24.1,0,69.6,14.6532,2203473,gaz,0,Logements collectifs
159,63,54.3,7.5,1.1,34,1.5,19.4,0,62.2,13.0986,2203473,gaz,0,Logements collectifs
160,60.2,46.6,6.2,7.4,25.6,1.2,21.9,0,54.8,11.600900000000001,2204683,gaz,0,Logements collectifs
161,94.1,86.4,6.8,0.9,57.5,1.4,0.9,0,64,14.2099,2205709,gaz,0,Logements collectifs
162,89.4,82.3,7,0.1,64.9,1.4,0.8,0,71.6,15.999600000000001,2205709,gaz,0,Logements collectifs
163,99.9,92.3,6.8,0.8,67.2,1.4,0.9,0,74.5,16.577699999999997,2205709,gaz,0,Logements collectifs
164,56,47.1,7.1,1.7,25.4,1.4,36.6,0,73.6,15.3282,2207093,gaz,0,Logements collectifs
166,56,44.4,6.2,5.4,26.2,1.2,9.6,0,44.7,8.481300000000001,2210025,gaz,0,Logements collectifs
167,46.5,36.9,6.7,2.9,18.2,1.3,28.3,0,54.5,11.465200000000001,2210507,gaz,0.22,Logements collectifs
168,41.8,41.1,0,0.6,25.5,1.3,20.7,0,54.7,11.388699999999998,2210653,gaz,0,Logements collectifs
169,37.4,36.8,0,0.6,23,1.3,18.9,0,49.5,10.3182,2210653,gaz,0,Logements collectifs
170,86.2,73.4,6.8,6,45.5,1.4,18.9,0,74.8,15.8645,2211647,gaz,0,Logements collectifs
171,87.7,74.4,6.7,6.6,48.3,1.4,19,0,77.8,16.5577,2211647,gaz,0,Logements collectifs
172,41.8,32.6,6.1,3.1,25.7,1.2,36.4,0,69.5,15.254100000000003,2213432,gaz,0,Logements collectifs
173,48.9,38.4,6.1,4.3,31.3,1.2,35.9,0,74.8,16.499799999999993,2213432,gaz,0.33,Logements collectifs
174,84.9,74.1,6.5,4.3,39.4,1.3,23.6,0,72.9,15.132499999999999,2213688,gaz,0,Logements collectifs
176,37.6,21.2,7.2,9.1,13.8,1.4,20.1,0,39.2,8.278599999999999,2216070,gaz,0,Logements collectifs
177,47.2,37.6,6.5,3.1,25.8,1.3,19.4,0,53.9,10.857399999999998,2217450,gaz,0,Logements collectifs
179,73,62,7.3,3.7,34.5,1.5,16.6,0,62.1,12.691400000000002,2220560,gaz,0,Logements collectifs
181,64.6,56,6.9,1.7,29.1,1.4,9.1,0,45.3,9.4716,2221184,gaz,0,Logements collectifs
182,88.9,73.8,7.6,7.5,54,1.5,20.4,0,86.3,18.3333,2221323,gaz,0,Logements collectifs
183,29.2,17.3,7.2,4.7,7.2,1.4,0.4,0,23.1,0.7554000000000001,2221754,elec,0,Logements collectifs
185,85.1,64.9,6.5,13.7,32.9,1.3,22,0,65,13.1984,2227048,gaz,0,Logements collectifs
186,80,70.8,6.8,2.4,36.2,1.4,10.7,0,58.6,10.9717,2227106,gaz,0,Logements collectifs
187,81.1,71.9,6.8,2.4,36.9,1.4,14.3,0,64.6,11.7856,2227106,gaz,0,Logements collectifs
188,73.7,63.6,6.8,3.2,35.6,1.4,19.8,0,60.9,13.5173,2228344,gaz,0,Logements collectifs
189,39,38,0,1,22.6,1.3,28,0,58.5,12.5264,2228855,gaz,0,Logements collectifs
190,75.4,61.1,0,14.4,38.6,1.3,17.7,0,65.6,13.870099999999999,2231745,gaz,0,Logements collectifs
191,94.9,82.6,6.9,5.4,41.9,1.4,16.8,0,65.4,14.3591,2236568,gaz,0,Logements collectifs
192,49,30.4,7.6,11,20.8,1.5,14,0,43.2,8.418500000000002,2237654,gaz,0,Logements collectifs
193,52.3,49.8,0,2.5,23.6,1.4,20.9,0,50,10.8117,2239651,gaz,0,Logements collectifs
194,52.8,50.4,0,2.4,23.8,1.4,20.4,0,49.7,10.755199999999999,2239651,gaz,0,Logements collectifs
195,58.4,44.7,6.9,6.8,25.4,1.4,16,0,48.4,10.137400000000001,2240705,gaz,0,Logements collectifs
196,53.2,37.7,6.9,8.6,21.1,1.4,16.4,0,44.7,9.196100000000001,2240705,gaz,0,Logements collectifs
197,33.8,15.2,6.6,12,12.9,1.3,19.2,0,37.9,7.867900000000001,2242030,gaz,0,Logements collectifs
198,32.6,15.4,6.7,10.5,13.6,1.3,19.4,0,39,8.0687,2242030,gaz,0,Logements collectifs
199,32.6,15.4,6.7,10.6,13.6,1.3,19.7,0,39.3,8.1659,2242030,gaz,0,Logements collectifs
200,52.8,35.1,7.3,10.3,9.2,1.5,1.4,0,30,0.9789,2242040,elec,0,Logements collectifs
201,41.6,30.6,6.7,4.3,17.2,1.3,29.4,0,55.5,11.3155,2242830,gaz,0,Logements collectifs
202,66.8,58,6.8,2,28.3,1.4,15.4,0,49.5,10.7682,2243722,gaz,0,Logements collectifs
203,65,56.2,6.8,2,27.2,1.4,15.4,0,48.5,10.5252,2243722,gaz,0,Logements collectifs
204,64.5,55.6,6.9,2,27.2,1.4,14.4,0,47.1,10.263,2243722,gaz,0,Logements collectifs
205,63.4,54.6,6.9,2,26.7,1.4,14.4,0,46.7,10.123600000000001,2243722,gaz,0,Logements collectifs
206,44.8,34.2,7.8,2.8,20.2,1.6,1.1,0,26.8,5.275499999999999,2245453,gaz,0,Logements collectifs
207,67.7,42.8,6.1,18.7,6.9,1.2,2.2,0,25.9,0.8285,2245501,elec,0.18,Logements collectifs
208,41.4,35.9,0,5.5,8.9,1.5,3.7,0,34.3,1.1047000000000002,2246085,elec,0.04,Logements collectifs
210,59.2,33.6,6.8,18.9,8.1,1.4,4.7,0,34.9,1.106,2247882,elec,0.13,Logements collectifs
212,65.8,59.6,0,6.2,34,1.5,20.1,0,64.8,12.8574,2250988,gaz,0,Logements collectifs
213,29.7,18.9,7.2,3.6,7.7,1.4,0.8,0,25,0.8209000000000002,2251328,elec,0,Logements collectifs
214,50,40.6,6.3,3.2,22.7,1.3,13.5,0,47.3,8.2156,2252336,gaz,0,Logements collectifs
215,80.1,71.7,6.7,1.8,36.8,1.3,20.6,0,64.7,14.0555,2253021,gaz,0,Logements collectifs
216,78.4,69.8,6.7,1.8,37.8,1.3,24,0,70.5,15.1468,2253021,gaz,0,Logements collectifs
217,35.3,29.4,0,5.9,13,1.4,1,0,38.7,1.2781999999999998,2253215,elec,0,Logements collectifs
218,36.5,32.6,0,3.9,14.5,1.4,1.1,0,41.2,1.3648,2253215,elec,0,Logements collectifs
219,23.9,20.1,0,3.7,10.6,1.4,6.6,0,43.9,1.395,2253216,elec,0,Logements collectifs
220,27.4,24,0,3.4,11.8,1.4,6.4,0,46.3,1.4768000000000001,2253216,elec,0,Logements collectifs
222,88.7,66.2,6.6,15.9,36.1,1.3,11.5,0,56.6,11.694599999999998,2257138,gaz,0,Logements collectifs
223,88.7,66.2,6.6,15.9,36.1,1.3,11.5,0,56.6,11.694599999999998,2257138,gaz,0,Logements collectifs
224,97.7,71.3,6.4,20,45.1,1.3,10.3,0,62.9,13.6002,2257138,gaz,0,Logements collectifs
225,108.5,76.7,6.2,25.6,48.8,1.2,11.2,0,67.6,14.7239,2257138,gaz,0,Logements collectifs
226,60.7,52.7,6.6,1.4,24.4,1.3,9.1,0,53.7,6.7348,2260131,gaz,0.16,Logements collectifs
227,80.7,72.4,6.5,1.8,36.4,1.3,21.2,0,63.9,13.958200000000001,2260131,gaz,0,Logements collectifs
228,70.6,62.2,6.5,2,31.2,1.3,21.2,0,58.6,12.662400000000002,2260131,gaz,0,Logements collectifs
229,64.9,56.6,6.5,1.8,26.9,1.3,9.2,0,56.2,7.3552,2260131,gaz,0.15,Logements collectifs
230,63.9,48.7,6.1,9.2,31.4,1.2,22.8,0,68.7,13.0205,2262861,gaz,0,Logements collectifs
231,65.2,49.8,6.1,9.4,32.2,1.2,22.8,0,69.7,13.2149,2262861,gaz,0,Logements collectifs
232,67.7,53.4,7.2,7.1,30.7,1.4,19.4,0,56.6,12.263,2263683,gaz,0,Logements collectifs
233,77.8,62.2,6.4,9.2,47.5,1.3,20.5,0,73.8,16.6172,2263702,gaz,0,Logements collectifs
234,79.6,63.6,6.4,9.5,48.3,1.3,20.5,0,74.6,16.787300000000002,2263889,gaz,0,Logements collectifs
235,73.4,62.5,7,4,34,1.4,17.8,0,64.1,11.860699999999998,2264739,gaz,0,Logements collectifs
236,58,51,6.7,0.3,29.7,1.3,15.7,0,50.9,11.1695,2264942,gaz,0,Logements collectifs
237,82.9,75.7,6.7,0.4,43.4,1.3,15.1,0,64.8,14.371999999999998,2264942,gaz,0.42,Logements collectifs
238,93.5,84.5,7.1,1.9,51.1,1.4,17.7,0,80.5,16.1358,2267805,gaz,0,Logements collectifs
239,89.8,80.9,7,1.9,48.3,1.4,17,0,74.8,15.5314,2267805,gaz,0,Logements collectifs
240,84.1,76.4,6.5,1.2,46.9,1.3,20,0,73.3,16.2898,2267813,gaz,0,Logements collectifs
241,66.2,52.1,6.5,7.5,27.5,1.3,20.9,0,53.1,11.7902,2268441,gaz,0,Logements collectifs
242,68.2,54.1,6.5,7.6,28.7,1.3,21.2,0,56.6,11.980999999999998,2268441,gaz,0,Logements collectifs
243,67.3,53.2,6.5,7.6,28.5,1.3,21.4,0,56.5,11.9811,2268441,gaz,0,Logements collectifs
244,94.3,86.3,6.5,1.5,45.9,1.3,26.5,0,84,17.8855,2270828,gaz,0.01,Logements collectifs
245,87.5,86.5,0,1,50.1,1.5,20.7,0,79,17.3091,2271921,gaz,0,Logements collectifs
247,76.7,61.3,0,15.4,16.9,1.3,12.2,0,76.3,2.3970000000000002,2273620,elec,0,Logements collectifs
248,67.9,55.6,6.5,5.8,32.3,1.3,22.8,0,62.5,13.4724,2274805,gaz,0,Logements collectifs
249,65.7,56.5,6.8,2.3,32.2,1.4,9.2,0,59.7,8.9526,2275388,gaz,0.24,Logements collectifs
250,59.4,50.4,6.8,2.1,30.6,1.4,11,0,62.3,8.777700000000001,2275388,gaz,0.01,Logements collectifs
251,66.3,48.4,6.2,11.7,28.4,1.2,19.7,0,55.6,11.722300000000002,2276106,gaz,0,Logements collectifs
252,49.7,35.6,6.5,7.6,22.4,1.3,19.1,0,50.6,9.938000000000002,2276106,gaz,0,Logements collectifs
253,94.6,65.5,6.8,22.3,32.3,1.4,27,0,67.6,14.4999,2276826,gaz,0,Logements collectifs
254,69.6,60.3,7.4,1.9,32.5,1.5,32.7,0,73,16.046000000000003,2277061,gaz,0,Logements collectifs
255,30.1,16,6.8,7.3,14,1.4,20,0,45.1,7.994499999999999,2277489,gaz,0,Logements collectifs
256,46.4,36.8,6.7,2.9,18.2,1.3,28.5,0,54.7,11.513800000000002,2280033,gaz,0.23,Logements collectifs
258,36.1,21.6,7.1,7.4,11,1.4,19.9,0,51.7,5.873099999999999,2282102,gaz,0,Logements collectifs
259,72,59.1,6.7,6.3,35.7,1.3,18.9,0,62.7,13.2391,2282803,gaz,0,Logements collectifs
260,81,68,6.6,6.4,41.3,1.3,20,0,70,14.8443,2282803,gaz,0,Logements collectifs
261,59.8,51.5,6.4,1.9,26.6,1.3,27.2,0,64.3,13.2689,2284046,gaz,0,Logements collectifs
262,63.6,55.8,6.1,1.6,26.2,1.2,24.4,0,59.9,12.476599999999998,2284046,gaz,0,Logements collectifs
264,45.1,43,0,2.2,21.8,1.3,18.5,0,48.2,9.8888,2289480,gaz,0,Logements collectifs
265,55,53.3,0,1.7,27.3,1.3,18.2,0,57.6,11.2561,2289480,gaz,0,Logements collectifs
266,65.9,57,7.1,1.8,31.9,1.4,35.7,0,75.9,16.6722,2292294,gaz,0,Logements collectifs
267,57.9,46.9,7.5,3.5,23.8,1.5,17.7,0,53.6,10.304499999999999,2292758,gaz,0,Logements collectifs
268,35.2,22.2,7.1,5.8,10.3,1.4,1.2,0,33,1.0779,2294065,elec,0,Logements collectifs
269,90.7,80.9,6.8,3,48.2,1.4,19.7,0,80.2,16.084000000000003,2296038,gaz,0,Logements collectifs
270,81.2,69.4,7.2,4.6,37.7,1.5,20.3,0,64.6,14.183099999999998,2296686,gaz,0,Logements collectifs
271,56.6,47.7,7,1.9,24.4,1.4,7.9,0,40,8.042799999999998,2296970,gaz,0,Logements collectifs
272,79.7,71,6.7,2.1,35.9,1.3,9.1,0,51.1,11.109399999999999,2296970,gaz,0,Logements collectifs
273,27.4,26.3,0,1.1,13.5,1.4,19,0,41.9,8.061499999999999,2297032,gaz,0,Logements collectifs
274,63.9,55.1,6.5,2.4,30.1,1.3,17.6,0,53.9,11.666399999999998,2297742,gaz,0,Logements collectifs
275,28.3,15.9,7.1,5.4,9.1,1.4,4.1,0,36.7,1.1651999999999998,2298683,elec,0,Logements collectifs
276,29.8,17.2,7.1,5.5,11.4,1.4,3.8,0,42.1,1.3466,2298683,elec,0,Logements collectifs
277,33.3,32.7,0,0.6,17.1,1.4,26.1,0,48.7,0.167,2299101,reseau,0.35,Logements collectifs
278,88.3,76.5,7.6,4.2,44.8,1.5,19,0,79.6,15.832099999999999,2300259,gaz,0,Logements collectifs
279,68.1,53.6,7.1,7.3,32.9,1.4,23.2,0,64.3,13.703699999999998,2302286,gaz,0,Logements collectifs
280,65.6,55.2,6,4.5,26.1,1.2,9.6,0,45.6,8.8751,2302510,gaz,0,Logements collectifs
281,65.1,54.7,6,4.4,26.4,1.2,9.6,0,46,8.948,2302510,gaz,0,Logements collectifs
282,71.8,57.1,7,7.6,36,1.4,23,0,67.4,14.4135,2304238,gaz,0,Logements collectifs
283,46.2,36.8,6.9,2.5,20.7,1.4,21.8,0,48.4,10.3955,2305434,gaz,0,Logements collectifs
284,45.8,36.3,6.8,2.7,20.5,1.4,21,0,48.2,10.147400000000001,2305434,gaz,0,Logements collectifs
285,53.8,44,6.5,3.3,22.7,1.3,17.6,0,49.6,9.2414,2306400,gaz,0,Logements collectifs
286,31.2,29.8,0,1.4,8.2,1.3,26.5,0,50.3,0.44170000000000004,2306819,reseau,0.45,Logements collectifs
287,40.4,27.1,6.9,6.5,17.9,1.4,26.4,0,50.8,10.832,2307631,gaz,0,Logements collectifs
288,63.7,53,7.2,3.5,41.2,1.5,35.2,0,82.4,0.1912,2308788,reseau,0.43,Logements collectifs
289,60.6,49.7,7.2,3.7,33.8,1.4,39.9,0,80.9,0.2351,2308788,reseau,0.44,Logements collectifs
290,30.7,15.2,7.3,8.2,9.9,1.5,11.8,0,27.9,5.4142,2309494,gaz,0,Logements collectifs
291,34.8,19.4,7.2,8.2,12.5,1.4,12.1,0,31.4,6.091999999999999,2309494,gaz,0,Logements collectifs
292,31.2,16.1,7.3,7.8,10.2,1.5,11.8,0,29.1,5.4963,2309494,gaz,0,Logements collectifs
293,33.9,19.1,7.4,7.4,11.3,1.5,11.4,0,29.7,5.6436,2309494,gaz,0,Logements collectifs
294,30.7,15.8,7.3,7.6,10.1,1.5,12.9,0,29.4,5.6958,2309494,gaz,0,Logements collectifs
296,63.8,62.1,0,1.7,20.2,1.4,8.7,0,79.5,2.5330999999999997,2309991,elec,0,Logements collectifs
297,68.7,65.8,0,2.9,9.9,1.4,2.3,0,34.6,1.1178,2310279,elec,0.28,Logements collectifs
298,51,43.5,7.1,0.3,28.7,1.4,4.1,0,46.7,7.3953,2310797,gaz,0.02,Logements collectifs
299,49.1,41.7,7.1,0.3,29.3,1.4,4,0,46.8,7.5123999999999995,2310797,gaz,0.02,Logements collectifs
300,50.5,43,7.1,0.3,28.4,1.4,4.1,0,46,7.3488,2310797,gaz,0.02,Logements collectifs
301,65.5,58.1,6.9,0.5,28.7,1.4,12,0,49.2,9.970699999999999,2310940,gaz,0,Logements collectifs
302,66.4,59,6.9,0.5,31.5,1.4,16.1,0,57.2,11.6159,2310940,gaz,0,Logements collectifs
303,65.5,58.1,6.9,0.5,31.8,1.4,12,0,52.6,10.715499999999999,2310940,gaz,0,Logements collectifs
304,73.2,60.7,6.6,5.9,30.6,1.3,16,0,53.1,11.4462,2311466,gaz,0,Logements collectifs
305,66.2,54.3,6.7,5.2,27.5,1.4,16.5,0,50.6,10.797,2311484,gaz,0,Logements collectifs
306,44.8,31.3,6.9,6.5,12.7,1.4,0.7,0,35.6,1.1902,2312943,elec,0,Logements collectifs
307,57.7,44.4,6.9,6.4,23.3,1.4,19.2,0,48.4,10.419699999999999,2318555,gaz,0,Logements collectifs
308,69.3,52.8,6.8,9.8,30.2,1.4,20.6,0,56.6,12.4123,2318587,gaz,0,Logements collectifs
309,85.2,77.3,7.7,0.2,45.7,1.5,23.6,0,78,16.725,2320325,gaz,0,Logements collectifs
310,61,52.5,6.6,2,34,1.3,30.5,0,73.6,15.8078,2320783,gaz,0,Logements collectifs
311,72.4,56.9,6.9,8.5,25.8,1.4,28.4,0,62.7,13.398100000000001,2321379,gaz,0,Logements collectifs
312,58.9,46.3,7.1,5.5,24,1.4,27.6,0,60.5,12.779100000000001,2321379,gaz,0,Logements collectifs
313,57.6,45,7.1,5.5,23.9,1.4,27.6,0,60.4,12.779100000000001,2321379,gaz,0,Logements collectifs
314,31.8,15.3,6.8,9.7,8.4,1.4,22.6,0,48.2,7.985899999999997,2321383,gaz,0,Logements collectifs
315,52.1,43.1,7,2,33.7,1.4,20.7,0,60.6,13.252899999999999,2327144,gaz,0,Logements collectifs
316,74.1,58.1,0,16,37.1,1.4,20.9,0,68.1,14.317700000000002,2331297,gaz,0,Logements collectifs
317,59.7,51.3,6.8,1.6,29,1.4,18.9,0,55.5,11.760299999999999,2331444,gaz,0,Logements collectifs
318,66.1,52.4,6.9,6.9,35.2,1.4,14.1,0,55.9,11.963000000000001,2336203,gaz,0,Logements collectifs
319,72.4,63.6,0,8.8,34.5,1.3,19.3,0,72.2,13.4815,2336370,gaz,0,Logements collectifs
320,59.6,52.8,0,6.8,27.9,1.3,15.8,0,59.9,10.9924,2336370,gaz,0,Logements collectifs
321,35.6,22.1,7.1,6.4,9.6,1.4,2.1,0,31.6,1.0299,2336707,elec,0,Logements collectifs
323,97.9,97.5,0,0.4,46.5,1.4,19.6,0,74.1,16.189300000000003,2337860,gaz,0,Logements collectifs
324,98.7,87.7,8,3,45.4,1.6,1.7,0,59,11.7241,2338182,gaz,0,Logements collectifs
325,83.9,73.7,6.3,3.9,30.6,1.3,31.3,0,66.1,15.129200000000003,2338583,gaz,0.04,Logements collectifs
326,43.6,39.1,0,4.5,18.4,1.3,18.4,0,42.4,9.021300000000002,2339852,gaz,0,Logements collectifs
327,66.6,58.8,0,7.9,27.1,1.3,17.3,0,49.3,10.8553,2339852,gaz,0,Logements collectifs
328,75.5,62.8,0,12.7,28.9,1.3,19,0,53.2,11.7122,2339852,gaz,0,Logements collectifs
329,82.2,66.5,7.3,8.4,15.1,1.5,2.7,0,46.8,1.5487,2343417,elec,0.04,Logements collectifs
330,84.7,68.1,6.3,10.3,41,1.3,20,0,67.9,14.876900000000001,2344775,gaz,0,Logements collectifs
331,82.6,66.7,6.3,9.6,39.2,1.3,17.6,0,63.1,13.877699999999999,2344775,gaz,0,Logements collectifs
332,77.3,68.6,6.5,2.2,42.2,1.3,19.8,0,69.8,15.1941,2344775,gaz,0,Logements collectifs
333,82.6,69.8,6.8,6.1,39,1.4,19.7,0,64,14.3386,2345769,gaz,0,Logements collectifs
334,80,66.8,6.7,6.5,40.2,1.3,17.8,0,63.2,14.168,2345769,gaz,0,Logements collectifs
335,80.1,65.8,6.7,7.6,38.8,1.3,22.2,0,66.6,14.8791,2345769,gaz,0,Logements collectifs
336,29.8,17.6,6.9,5.3,10.2,1.4,13.9,0,29,0.14780000000000001,2346335,reseau,0,Logements collectifs
337,24.5,12.9,6.4,5.2,30,1.3,11.2,0,47.7,10.0755,2349014,gaz,0,Logements collectifs
338,31,16.7,6.7,7.7,10.4,1.3,0.3,0,28.8,0.9628,2349278,elec,0,Logements collectifs
339,44.3,29.9,7.7,6.7,20.3,1.5,18.4,0,45.5,9.4269,2349782,gaz,0,Logements collectifs
340,29.8,17.6,6.9,5.3,10.2,1.4,13.9,0,29,0.14780000000000001,2350203,reseau,0,Logements collectifs
341,53.4,24,7,22.5,14.2,1.4,14.6,0,35.2,7.1198,2350738,gaz,0,Logements collectifs
342,75.9,64.1,6.7,5.1,36.4,1.3,18.8,0,65.3,13.6384,2352258,gaz,0,Logements collectifs
343,39.8,29.7,6.5,3.6,16.9,1.3,4.4,0,54.6,1.7812000000000001,2353528,elec,0,Logements collectifs
344,58.1,49.6,6.4,2,26.9,1.3,22.9,0,64.1,11.899700000000001,2353836,gaz,0,Logements collectifs
345,93.7,80.3,7,6.4,43.7,1.4,23.2,0,75.5,16.3802,2353837,gaz,0,Logements collectifs
346,47.1,30.9,6.6,9.6,21.6,1.3,16.1,0,73,5.7994,2353922,elec,0,Logements collectifs
347,52.3,43.4,6.9,2,29.2,1.4,3,0,39.3,7.990799999999999,2355247,gaz,0,Logements collectifs
348,52.4,43.5,6.9,2,29.2,1.4,3,0,39.3,7.990799999999999,2355324,gaz,0,Logements collectifs
349,57.9,49.3,6.9,1.7,32.1,1.4,2.5,0,40,8.5292,2355348,gaz,0,Logements collectifs
351,100.1,70.5,6.4,23.2,34.2,1.3,8.9,0,50.5,10.611200000000002,2355912,gaz,0,Logements collectifs
352,64.9,56.5,7.3,1.1,30.2,1.5,1,0,36.5,7.6108,2355996,gaz,0,Logements collectifs
353,73.1,64.7,6.8,1.6,40.2,1.4,0.9,0,47,10.0203,2355996,gaz,0,Logements collectifs
354,64.9,51.3,7.2,6.4,28,1.4,23.2,0,62.8,11.7518,2357924,gaz,0,Logements collectifs
355,28.1,22.6,0,5.5,14.6,1.4,0.3,0,38.6,1.3015,2358540,elec,0,Logements collectifs
356,65.5,55.7,7.5,2.2,33.7,1.5,22.6,0,64.7,13.4751,2359581,gaz,0,Logements collectifs
357,75.2,58.1,7,10.1,33.3,1.4,23.3,0,65.3,13.7881,2359787,gaz,0,Logements collectifs
358,63.4,44.6,6.4,12.4,33.3,1.3,1.9,0,43.7,0.31520000000000004,2359818,elec,0.73,Logements collectifs
360,46.1,37.3,7.3,1.4,16.4,1.5,0.6,0,44.5,1.4956999999999998,2361432,elec,0,Logements collectifs
361,33,21.4,0,11.6,6.4,1.4,3.4,0,29.1,0.9192,2363039,elec,0,Logements collectifs
362,61.2,52.1,6.7,2.4,23.9,1.3,17.1,0,49.2,10.187100000000003,2363813,gaz,0,Logements collectifs
363,64.5,55.4,6.7,2.4,25.3,1.3,16.1,0,49.6,10.290700000000001,2363813,gaz,0,Logements collectifs
364,59.6,50.2,6.7,2.7,23.5,1.3,18.9,0,50.8,10.5401,2363813,gaz,0,Logements collectifs
366,67.8,59.4,6.4,2,34.8,1.3,21.8,0,68,14.039700000000002,2364321,gaz,0,Logements collectifs
367,65.5,56.9,6.5,2.1,34.1,1.3,23.4,0,67.8,14.2264,2364321,gaz,0.45,Logements collectifs
368,72.3,55.9,6.9,9.4,35.2,1.4,15.8,0,57,12.317800000000002,2364463,gaz,0,Logements collectifs
369,70.1,55.3,6.5,8.3,29.8,1.3,15.9,0,52.1,11.149099999999999,2364939,gaz,0,Logements collectifs
370,59.8,51.7,6.7,1.4,27,1.3,18.3,0,51,11.027000000000001,2365223,gaz,0,Logements collectifs
371,57.5,49.3,6.6,1.6,26.5,1.3,18.5,0,51.2,10.960500000000001,2365223,gaz,0.4,Logements collectifs
372,66.3,54.7,0,11.6,27,1.3,6.9,0,55.8,1.0762000000000003,2366985,elec,0.28,Logements collectifs
373,47.5,36,7,4.5,8.9,1.4,1.3,0,30.2,0.9866000000000001,2367818,elec,0.03,Logements collectifs
374,25.7,21.5,0,4.2,12.8,1.5,2.3,0,40.5,1.3346,2370683,elec,0,Logements collectifs
375,50.3,41.1,6.2,3.1,19.5,1.2,0.7,0,50.3,1.6944000000000001,2370690,elec,0,Logements collectifs
376,23.1,15,0,8.1,3.7,1.5,3.3,0,22.3,0.6871,2372624,elec,0,Logements collectifs
377,70.7,63.2,6.8,0.8,39.1,1.4,26.1,0,75,0.2822,2372977,reseau,0.74,Logements collectifs
378,75.2,67.6,6.7,0.9,42.3,1.3,29.9,0,83.4,0.3137,2372977,reseau,0.79,Logements collectifs
379,36.5,21.7,6.9,7.9,8.8,1.4,1.8,0,28.7,0.9408000000000001,2373772,elec,0,Logements collectifs
380,97.1,78.9,6.7,11.5,50,1.3,8.1,0,88.6,1.5853,2374471,elec,0.29,Logements collectifs
381,87.5,67.7,6.7,13.1,43.6,1.3,8.6,0,80.5,1.4345999999999999,2374471,elec,0.31,Logements collectifs
382,36.7,20.6,7.1,9,10.3,1.4,3.6,0,38.6,1.2339,2374591,elec,0,Logements collectifs
383,35.4,18.3,7.1,10,9,1.4,3.6,0,35.1,1.1183999999999998,2374591,elec,0,Logements collectifs
384,66.1,56.7,7.6,1.8,28.2,1.5,27,0,67.4,13.680599999999998,2374915,gaz,0,Logements collectifs
385,62,40.3,6.1,15.7,16.9,1.2,6.2,0,29,5.722299999999999,2376142,gaz,0,Logements collectifs
386,86.9,77.7,6.5,2.7,45.7,1.3,14.9,0,66.5,0.17290000000000003,2376251,reseau,0.11,Logements collectifs
387,65.7,57.3,7,1.5,31,1.4,12.8,0,51.4,10.838799999999999,2377527,gaz,0,Logements collectifs
388,61.3,52.9,6.8,1.7,27.7,1.4,10.3,0,48.2,9.440000000000001,2377527,gaz,0,Logements collectifs
389,69.5,53.8,7,8.7,33.9,1.4,15.9,0,55.7,12.0669,2378431,gaz,0,Logements collectifs
390,69.6,53.8,7,8.8,33.9,1.4,15.9,0,55.7,12.0669,2378503,gaz,0,Logements collectifs
391,76,68.1,7.3,0.6,32.5,1.5,3,0,42.9,8.713300000000002,2379114,gaz,0,Logements collectifs
392,83.9,75.7,7.3,0.8,36.3,1.5,3.7,0,47.3,9.8361,2379114,gaz,0,Logements collectifs
393,76.1,68.2,7.3,0.6,32.6,1.5,3,0,42.9,8.737600000000002,2379182,gaz,0,Logements collectifs
394,83.9,75.8,7.3,0.8,36.3,1.5,3.7,0,47.4,9.8604,2379182,gaz,0,Logements collectifs
395,72.5,63.1,6.6,2.8,44.9,1.3,20.7,0,70.6,15.994000000000002,2380967,gaz,0,Logements collectifs
396,116.6,91.6,5.9,19,17.4,1.2,9,0,70,2.2215999999999996,2380967,elec,0.25,Logements collectifs
397,32.8,18.2,0,14.5,7.4,1.4,22.3,0,36.6,7.299299999999999,2381183,gaz,0,Logements collectifs
398,42.2,34.5,0,7.7,6.3,1.3,2,0,24.8,0.7941999999999999,2381721,elec,0.08,Logements collectifs
399,70.6,62.3,7,1.3,34.9,1.4,14.7,0,57.4,12.236799999999997,2381973,gaz,0,Logements collectifs
400,74.8,66.7,6.8,1.3,34.1,1.4,24.3,0,65.1,14.2798,2382869,gaz,0,Logements collectifs
401,28.7,20.3,6.5,1.9,18.4,1.3,35.1,0,58.9,4.606999999999999,2384014,reseau,0,Logements collectifs
402,72.2,55,5.8,11.4,29.5,1.2,24.2,0,58.8,13.066099999999999,2384614,gaz,0,Logements collectifs
403,74.8,47.9,6.8,20.1,34,1.4,15.5,0,55.7,12.127099999999999,2386886,gaz,0,Logements collectifs
405,60.4,45.7,6.4,8.3,28.6,1.3,25,0,59.6,0.1729,2387811,reseau,0.71,Logements collectifs
406,71.3,57,6.4,7.8,36.2,1.3,23.7,0,65.5,0.1665,2387811,reseau,0.72,Logements collectifs
408,105.2,94,6.7,4.4,54.9,1.3,12.9,0,74.5,0.1921,2387875,reseau,0,Logements collectifs
409,56.9,38.3,6,12.6,22.8,1.2,5.7,0,49.2,6.023699999999999,2388957,gaz,0,Logements collectifs
410,77.3,67.3,6.8,3.2,39,1.4,19.5,0,64,14.23,2389951,gaz,0,Logements collectifs
411,29.9,27.3,0,2.5,16.1,1.3,17.4,0,39.1,8.201600000000003,2391576,gaz,0,Logements collectifs
412,31.5,27.7,0,3.9,19.4,1.4,17.5,0,43.1,9.0475,2391576,gaz,0,Logements collectifs
413,70.9,62.1,7.2,1.7,38,1.4,22,0,65.9,14.5861,2392000,gaz,0,Logements collectifs
414,71.5,62.6,7.2,1.7,38.3,1.4,22,0,66.2,14.6347,2392024,gaz,0,Logements collectifs
415,47,36.9,7.1,3,21.2,1.4,18.9,0,48.8,9.817799999999998,2392341,gaz,0,Logements collectifs
416,41.5,31.9,7,2.6,19.1,1.4,16.3,0,43,8.692200000000001,2392341,gaz,0,Logements collectifs
417,48.8,35.4,7.4,6,9.1,1.5,1.3,0,29.5,0.9709000000000001,2393163,elec,0.06,Logements collectifs
418,56.1,42.1,6.4,7.6,26.7,1.3,25,0,57.7,0.1729,2394051,reseau,0.71,Logements collectifs
419,69.7,55.4,6.4,7.8,35.4,1.3,23.7,0,64.7,0.1665,2394051,reseau,0.72,Logements collectifs
420,72.9,9,0,63.9,1.8,1.3,1.4,0,12.8,0.3869,2394622,elec,0,Logements collectifs
421,18.9,7.4,6.7,4.8,7.5,1.3,17.5,0,33.7,6.089699999999999,2395854,gaz,0,Logements collectifs
422,40.9,29.1,6.5,5.3,17.4,1.3,1,0,45.3,1.5292999999999999,2396243,elec,0,Logements collectifs
423,52.7,44.2,7,1.5,22.4,1.4,25.4,0,54.5,11.7026,2396312,gaz,0,Logements collectifs
424,69,60.3,6.8,2,38.8,1.4,28.3,0,74.6,16.4928,2397492,gaz,0,Logements collectifs
425,54.6,44.6,6.9,3.1,28,1.4,27.7,0,62.3,13.6222,2399721,gaz,0,Logements collectifs
426,78.1,68.7,8.1,1.2,40.1,1.6,2,0,47.2,10.372700000000002,2400819,gaz,0,Logements collectifs
427,55.9,46.5,6.9,2.5,26,1.4,28.1,0,60.4,13.3162,2402357,gaz,0,Logements collectifs
428,58.8,49.6,6.7,2.5,26.9,1.3,30.6,0,64.5,14.154700000000002,2402358,gaz,0,Logements collectifs
429,71.4,63.7,6.5,1.3,38.4,1.3,24.5,0,69.2,0.17930000000000001,2402528,reseau,0.43,Logements collectifs
430,86.2,78.1,6.9,1.2,49.5,1.4,20.5,0,77.6,17.1242,2402539,gaz,0,Logements collectifs
431,84,75.9,6.9,1.3,48.4,1.4,20.5,0,76.4,16.8326,2402539,gaz,0,Logements collectifs
432,37.7,19.9,6.7,11.1,5.9,1.3,9.7,0,35.2,2.6443,2404453,elec,0,Logements collectifs
433,46,34.9,6.1,4.9,27.6,1.2,18.6,0,53.2,11.126199999999999,2404712,gaz,0,Logements collectifs
435,108.8,96,7.1,5.7,54,1.4,21.3,0,91.4,17.5093,2405851,gaz,0,Logements collectifs
436,110.1,97.3,7.1,5.7,54.5,1.4,21.4,0,92.2,17.638699999999996,2405851,gaz,0,Logements collectifs
437,48.6,36.9,6.2,5.5,24.1,1.2,17.6,0,49.5,9.897300000000001,2405860,gaz,0,Logements collectifs
438,48.6,14.8,6.9,27,3.8,1.4,0.5,4.6,27.7,0.8325,2405873,elec,0,Logements collectifs
439,64.3,51.7,7.1,5.5,28,1.4,23.2,0,59.3,12.5444,2407894,gaz,0,Logements collectifs
440,78.3,71.2,6.6,0.5,46,1.3,19.9,0,71.6,16.0698,2408006,gaz,0,Logements collectifs
442,51.5,42.9,7.1,1.6,21.6,1.4,35.8,0,66.6,14.089400000000003,2411365,gaz,0,Logements collectifs
443,28.1,12.8,7.1,8.2,5.4,1.4,0.9,0,21.3,0.6777,2411383,elec,0,Logements collectifs
444,33.6,20,7.1,6.4,9.1,1.4,0.9,0,29.7,0.97,2411383,elec,0,Logements collectifs
445,28.5,16.7,7.2,4.7,8,1.4,0.4,0,24.4,0.8058000000000001,2411997,elec,0,Logements collectifs
446,26.7,15.3,7.2,4.3,6.4,1.4,0.4,0,20.6,0.673,2412041,elec,0,Logements collectifs
447,80.4,77,0,3.4,39.2,1.3,21.8,0,69.3,14.931700000000001,2412448,gaz,0,Logements collectifs
448,62.1,52.2,0,9.9,30,1.3,17.5,0,54.5,11.659799999999999,2413265,gaz,0,Logements collectifs
449,107.4,97.9,6.9,2.6,52.8,1.4,4.3,0,64.9,13.772000000000002,2413858,gaz,0,Logements collectifs
450,73.9,64.7,7,2.2,37.5,1.4,30.6,0,76.3,16.751499999999997,2414705,gaz,0,Logements collectifs
451,34,17,6.9,10.1,11.1,1.4,0.2,0,32.7,1.0825,2415216,elec,0,Logements collectifs
452,45.9,43.8,0,2.2,24.8,1.3,22,0,56.8,11.5729,2415874,gaz,0,Logements collectifs
453,61.1,59.5,0,1.5,31,1.5,17.6,0,55.6,11.903799999999999,2419100,gaz,0,Logements collectifs
454,74.3,63.2,6.6,4.5,35.3,1.3,16.9,0,60.9,12.8303,2420038,gaz,0,Logements collectifs
455,60.6,53.1,6.7,0.9,16.3,1.3,11.1,0,68.2,2.1629,2420933,elec,0.03,Logements collectifs
456,69.5,58.5,0,10.9,33.6,1.3,18.3,0,59,12.7111,2422508,gaz,0,Logements collectifs
457,43,40.8,0,2.2,25.5,1.4,18.9,0,60,10.579300000000002,2423079,gaz,0,Logements collectifs
458,68,65.9,0,2.1,38,1.4,17,0,67,12.820399999999998,2423079,gaz,0,Logements collectifs
459,83.9,71.8,6.8,5.3,41.3,1.4,27.2,0,77.5,16.8208,2423204,gaz,0,Logements collectifs
460,60.9,59.1,0,1.8,28.2,1.5,33.1,0,74.8,15.234000000000002,2430683,gaz,0,Logements collectifs
461,28.9,26.1,0,2.8,18.3,1.4,17.6,0,44.7,8.892699999999998,2430828,gaz,0,Logements collectifs
462,27.3,23.4,0,4,15.2,1.4,17.9,0,43.6,8.2635,2430829,gaz,0,Logements collectifs
463,20,17.8,0,2.3,11.8,1.4,15.1,0,34.8,6.7029,2430830,gaz,0,Logements collectifs
465,105.8,93.1,7.3,5.4,43.7,1.5,19.5,0,71.1,15.4851,2431106,gaz,0,Logements collectifs
466,87.5,67.7,6.7,13.1,43.6,1.3,8.6,0,80.5,1.4345999999999999,2432979,elec,0.31,Logements collectifs
467,54.6,46.6,7.1,0.9,26.3,1.4,17.9,0,50.6,10.796999999999999,2433073,gaz,0,Logements collectifs
468,74.3,68.9,0,5.4,32,1.3,16.4,0,53.9,11.827200000000001,2433121,gaz,0,Logements collectifs
469,69.8,67.4,0,2.4,30.8,1.3,18.1,0,55,11.9987,2433121,gaz,0,Logements collectifs
470,68.1,60.9,6.8,0.4,34.3,1.4,20.2,0,60.2,13.2579,2434380,gaz,0,Logements collectifs
471,68.1,60.9,6.8,0.4,34.3,1.4,20.2,0,60.2,13.2579,2434380,gaz,0,Logements collectifs
472,95.9,81.7,6.5,7.6,47.8,1.3,21.4,0,76.4,16.7989,2435423,gaz,0,Logements collectifs
473,89.7,75.6,6.7,7.4,42.1,1.4,18.5,0,69.4,14.919,2438519,gaz,0,Logements collectifs
474,91.6,78.4,0,13.2,10.2,1.4,2.1,0,34.5,1.1285,2438558,elec,0,Logements collectifs
475,78.7,77.2,0,1.5,46.9,1.3,19.3,0,74.2,16.148099999999996,2438637,gaz,0,Logements collectifs
476,78.3,76.8,0,1.5,44.4,1.3,19.3,0,71.7,15.582799999999999,2438637,gaz,0,Logements collectifs
477,80.2,78.8,0,1.5,45.7,1.3,18.7,0,72.1,15.746499999999997,2438637,gaz,0,Logements collectifs
478,45.2,29.5,7,8.6,8.2,1.4,0.7,0,25.6,0.8411,2438937,elec,0,Logements collectifs
480,47.6,36.2,6.4,5,28.6,1.3,12.8,0,47.5,10.0571,2440836,gaz,0,Logements collectifs
482,54.1,42.9,6,5.1,26.7,1.2,36.6,0,71.9,15.2971,2443592,gaz,0,Logements collectifs
483,59.8,42.5,5.9,11.5,19.5,1.2,1.9,0,53.3,1.7852,2444087,elec,0,Logements collectifs
484,68.5,59.2,7,2.2,31.8,1.4,27.9,0,66.4,14.707700000000003,2444610,gaz,0.01,Logements collectifs
485,63.7,53.5,7,3.2,28.3,1.4,26.4,0,59,13.404400000000003,2445484,gaz,0,Logements collectifs
486,68.3,60.6,6.8,0.8,31.7,1.4,26.9,0,63.8,14.3777,2445484,gaz,0.36,Logements collectifs
487,33.6,19.4,7.5,6.8,8.3,1.5,1.4,0,27.9,0.9078,2446914,elec,0,Logements collectifs
488,25.5,12.3,7.4,5.8,5.5,1.5,1.4,0,21.5,0.6994,2446976,elec,0,Logements collectifs
489,26.4,13.2,7.4,5.9,5.7,1.5,1.4,0,22.1,0.7152000000000001,2447012,elec,0,Logements collectifs
490,33.6,19.4,7.5,6.8,8.3,1.5,1.4,0,27.9,0.9078,2447026,elec,0,Logements collectifs
491,58.1,49.1,6.5,2.4,37.4,1.3,18.9,0,61.8,13.824599999999997,2447901,gaz,0,Logements collectifs
492,53.6,42.9,6.8,3.9,20.2,1.3,9.8,0,74,2.3801,2448839,elec,0,Logements collectifs
493,85.5,75.6,7.2,2.8,39.9,1.4,21.4,0,69,14.985799999999998,2449125,gaz,0,Logements collectifs
494,91.5,80.7,7,3.8,42.5,1.4,21.8,0,72.5,15.709700000000002,2449125,gaz,0,Logements collectifs
495,49.2,42.7,6.3,0.1,22,1.3,19.4,0,46.2,10.0957,2451356,gaz,0,Logements collectifs
496,49.6,43.2,6.3,0.2,22.4,1.3,20.3,0,47.6,10.425899999999999,2451356,gaz,0,Logements collectifs
497,60.1,48.8,7.2,4.2,33.9,1.4,30.3,0,71.7,0.2118,2451824,reseau,0,Logements collectifs
498,94.6,82.6,7.4,4.6,45.5,1.5,20.9,0,73,16.1752,2452388,gaz,0,Logements collectifs
499,96.2,84.1,7.3,4.7,45.8,1.5,19.7,0,72,15.919400000000001,2452388,gaz,0,Logements collectifs
500,60.4,51.1,6.5,2.8,26.2,1.3,20.5,0,52.6,11.392800000000001,2452590,gaz,0,Logements collectifs
501,72.4,59.5,6.7,6.3,35.5,1.3,28.4,0,69.1,15.610199999999999,2453053,gaz,0.24,Logements collectifs
502,81.3,67.1,6.5,7.6,39.9,1.3,28.8,0,75.1,16.658200000000004,2453053,gaz,0,Logements collectifs
503,59.4,57.8,0,1.7,28.1,1.3,18,0,56.7,11.439899999999998,2453091,gaz,0,Logements collectifs
504,75.1,66.7,6.2,2.2,35,1.2,17.9,0,64.3,12.306700000000001,2454013,gaz,0,Logements collectifs
505,70.1,61.7,6.3,2.2,32.3,1.3,18.2,0,63.7,11.4186,2454013,gaz,0,Logements collectifs
506,68.9,60.5,6.3,2,31.5,1.3,19.7,0,72.1,10.682699999999999,2454013,gaz,0,Logements collectifs
507,63.3,55,6.4,1.9,28.7,1.3,12.7,0,57.2,8.9236,2454013,gaz,0,Logements collectifs
508,60.3,52.1,6.4,1.9,27.3,1.3,12.2,0,52.3,8.851799999999999,2454013,gaz,0,Logements collectifs
509,45.6,28.9,7.1,9.7,20.2,1.4,16.4,0,41.8,8.9426,2455635,gaz,0,Logements collectifs
510,44.2,27.6,7,9.6,19.8,1.4,16.4,0,41.3,8.839,2455637,gaz,0,Logements collectifs
511,48.6,40.1,6.6,1.9,24.9,1.3,16.7,0,49,10.126900000000001,2457084,gaz,0,Logements collectifs
512,78.5,36.6,5.8,36,11.4,1.2,1.1,0,33.2,1.1061,2458566,elec,0,Logements collectifs
514,58.1,50.8,7.3,0,33.1,1.5,21.3,0,63.7,13.2974,2460196,gaz,0,Logements collectifs
515,57.9,49.5,6.8,1.6,28.2,1.4,17.3,0,51.1,11.1131,2460321,gaz,0,Logements collectifs
516,62.3,53.6,6.7,2,30.5,1.3,18.7,0,55.5,11.9725,2460321,gaz,0,Logements collectifs
517,47.8,43.6,0,4.2,19.8,1.2,23.9,0,51.7,10.8184,2460457,gaz,0,Logements collectifs
518,67.5,58.1,6.9,2.4,17.7,1.4,9.2,0,67.8,2.1633,2460570,elec,0,Logements collectifs
519,57.9,50.6,7.3,0.1,33,1.5,21.3,0,63.5,13.2731,2460662,gaz,0,Logements collectifs
520,48.5,35,7.4,6.2,15.3,1.5,0.6,0,42.1,1.4088,2461081,elec,0,Logements collectifs
521,46.7,33.8,7.5,5.4,15,1.5,0.6,0,41.5,1.3915,2461081,elec,0,Logements collectifs
524,58.6,49.4,0,9.2,21.6,1.4,16.3,0,45.6,9.3531,2465148,gaz,0,Logements collectifs
525,66.3,59.7,0,6.6,28,1.4,21.7,0,60.9,12.275899999999998,2465148,gaz,0,Logements collectifs
526,58,50.6,0,7.4,22.5,1.4,19,0,51.9,10.0427,2465148,gaz,0,Logements collectifs
527,67.4,59.2,6.8,1.4,30.6,1.4,24.4,0,61.6,13.4779,2465220,gaz,0,Logements collectifs
528,64.7,55.6,6.6,2.5,30.7,1.3,9.8,0,46.8,10.028699999999999,2465225,gaz,0,Logements collectifs
529,63,54,6.6,2.3,28.5,1.3,16.9,0,52.7,11.245,2465243,gaz,0,Logements collectifs
530,44.5,35.7,6.6,2.3,26,1.3,16.8,0,57.9,9.162700000000001,2465439,gaz,0,Logements collectifs
531,89.2,81.1,6.5,1.5,47,1.3,17.6,0,70.6,15.7667,2465901,gaz,0,Logements collectifs
532,37,21.6,6.9,8.4,10.7,1.4,7.8,0,48.3,1.5257000000000003,2465911,elec,0,Logements collectifs
533,40.7,32.2,0,8.5,26.6,1.2,0.6,0,65.9,2.2424000000000004,2466869,elec,0,Logements collectifs
534,51.5,29,6.3,16.2,9,1.3,2.2,0,34.1,1.0973,2467487,elec,0,Logements collectifs
535,46.6,38.5,6.4,1.7,16.5,1.3,0.1,0,42.6,1.4381000000000002,2467847,elec,0,Logements collectifs
536,80.2,72.6,6.6,1,50.3,1.3,19.6,0,97.3,15.6588,2468554,gaz,0.06,Logements collectifs
537,40.6,32.1,0,8.5,26.6,1.2,0.6,0,65.8,2.2424000000000004,2469156,elec,0,Logements collectifs
538,109.9,96.9,7.1,5.8,48.4,1.4,14.3,0,71.9,15.3331,2469377,gaz,0,Logements collectifs
539,109.6,96.6,7.1,5.8,48.3,1.4,14.3,0,71.7,15.284500000000001,2469377,gaz,0,Logements collectifs
540,108.5,95.9,7.2,5.4,47.9,1.4,14.3,0,71.4,15.211599999999999,2469377,gaz,0,Logements collectifs
541,65.4,51.7,7.3,6.4,35.3,1.5,18.4,0,60.9,13.080499999999999,2469741,gaz,0,Logements collectifs
542,68,54.9,6.6,6.6,31.1,1.3,16,0,51.4,0.12810000000000002,2471093,reseau,0.52,Logements collectifs
543,65.6,52.7,6.6,6.3,37.4,1.3,7.5,0,49.1,0.12170000000000002,2471093,reseau,0.37,Logements collectifs
544,27.2,22,0,5.2,13.3,1.4,7.4,0,53.3,1.6923000000000001,2473817,elec,0,Logements collectifs
545,62.5,53.7,6.6,2.1,30.7,1.3,28.5,0,67.6,14.564200000000001,2474032,gaz,0.1,Logements collectifs
546,61.3,39.9,6.4,14.9,8.1,1.3,1.2,0,29.7,0.9548,2474035,elec,0,Logements collectifs
547,68.9,58.6,6.9,3.4,28.7,1.4,16.7,0,57.1,11.300700000000003,2476522,gaz,0,Logements collectifs
548,69.4,59.2,6.9,3.3,31,1.4,16.7,0,59.3,11.877500000000001,2476522,gaz,0,Logements collectifs
549,77,68.2,7,1.8,38.3,1.4,22,0,68.3,14.7393,2477201,gaz,0,Logements collectifs
550,83.7,75.2,6.6,1.9,40,1.3,20.5,0,67.9,14.784500000000001,2477201,gaz,0,Logements collectifs
551,83.7,75.2,6.6,1.9,40,1.3,20.5,0,67.9,14.784500000000001,2477201,gaz,0,Logements collectifs
552,50.7,42.2,7.3,1.1,27.7,1.5,16.8,0,49.8,10.886999999999999,2478184,gaz,0,Logements collectifs
553,36,27.6,7.4,1,18.8,1.5,17,0,41.1,8.755099999999999,2478184,gaz,0,Logements collectifs
554,93.6,86.3,0,7.4,19.3,1.4,1.9,0,54,1.8024000000000002,2479966,elec,0,Logements collectifs
555,78.9,69.6,7.4,1.9,44.4,1.5,16.7,0,72.7,14.738000000000001,2482022,gaz,0,Logements collectifs
556,93,83.2,7.2,2.6,54.2,1.4,19.1,0,86.1,17.5631,2482022,gaz,0,Logements collectifs
557,42.7,31,0,11.8,26,1.2,0.6,0,64.4,2.1950000000000003,2482851,elec,0,Logements collectifs
559,55.6,33.8,7,14.8,26.7,1.4,27.6,0,61.2,0.1926,2484245,reseau,0.42,Logements collectifs
560,63.8,55.8,6.5,1.5,31.6,1.3,3.4,0,45.8,8.771700000000001,2484440,gaz,0,Logements collectifs
561,54.8,45.5,0,9.3,19.9,1.4,16.3,0,43.9,8.9336,2485413,gaz,0,Logements collectifs
562,61.4,54.8,0,6.6,25.9,1.4,21.8,0,58.7,11.783500000000002,2485413,gaz,0,Logements collectifs
563,54.2,46.9,0,7.4,20.9,1.4,19,0,50.1,9.647499999999999,2485413,gaz,0,Logements collectifs
564,40.4,40.4,0,0,31.9,1.4,33.7,0,71.6,16.080000000000002,2488200,gaz,0,Logements collectifs
565,67.7,54.1,7.2,6.4,25.1,1.4,11.5,0,43.6,9.044300000000002,2489146,gaz,0.19,Logements collectifs
566,62.2,48.9,7.2,6.1,21.7,1.4,11.7,0,40.4,8.266700000000002,2489146,gaz,0.23,Logements collectifs
567,69.8,54.2,7,8.6,24.7,1.4,10.9,0,42.5,8.825600000000001,2489146,gaz,0.25,Logements collectifs
568,78.7,72.2,0,6.5,36.1,1.5,20.8,0,67.8,14.006699999999999,2492672,gaz,0,Logements collectifs
569,56.7,54.8,0,1.9,33.2,1.4,22.9,0,66.1,13.792700000000002,2494698,gaz,0,Logements collectifs
570,66.1,52.1,6.4,7.5,34.7,1.3,19,0,59.3,13.135900000000001,2494872,gaz,0,Logements collectifs
571,78.2,63.2,6.2,8.8,41.1,1.3,18,0,64.8,14.4302,2494872,gaz,0,Logements collectifs
572,52.4,39.4,6.5,6.5,27.2,1.3,20.3,0,53.2,11.629400000000002,2494872,gaz,0,Logements collectifs
573,57.7,47,6.9,3.9,32.2,1.4,17.4,0,55.4,12.1143,2494907,gaz,0,Logements collectifs
574,59.5,49.3,7,3.3,32.3,1.4,16.9,0,54.9,12.0414,2494907,gaz,0,Logements collectifs
575,87.7,77.6,6.3,3.8,13.4,1.3,27,0,46.5,9.9559,2497142,gaz,0,Logements collectifs
576,54.3,45.3,6.7,2.4,30.2,1.3,16.8,0,53.3,11.4557,2499031,gaz,0,Logements collectifs
577,44.3,35.5,6.8,2,20.9,1.4,16.1,0,43.5,9.0861,2499031,gaz,0,Logements collectifs
578,48.8,40.9,6.8,1.1,26.6,1.4,14.4,0,48.9,10.0965,2499797,gaz,0,Logements collectifs
579,48.8,40.9,6.8,1.2,26.6,1.4,14.4,0,48.9,10.0722,2499797,gaz,0,Logements collectifs
580,48.8,40.9,6.8,1.2,26.6,1.4,14.4,0,48.9,10.0722,2499797,gaz,0,Logements collectifs
581,35.4,29.4,0,6,13,1.4,1,0,38.7,1.2781999999999998,2500287,elec,0,Logements collectifs
582,36.5,32.6,0,3.9,14.5,1.4,1.1,0,41.2,1.3648,2500287,elec,0,Logements collectifs
583,23.8,20.1,0,3.7,10.6,1.4,6.6,0,43.9,1.395,2501660,elec,0,Logements collectifs
584,21.4,17.8,0,3.5,8.8,1.4,6.3,0,39.3,1.2333,2501660,elec,0,Logements collectifs
585,53.2,42.2,7.2,3.8,24.1,1.4,8.7,0,40.4,8.0995,2501734,gaz,0,Logements collectifs
586,65.8,54.6,7.2,4,35.9,1.4,8.6,0,53.7,11.005299999999998,2501734,gaz,0.24,Logements collectifs
587,74.9,65.8,6.9,2.1,40.3,1.4,18.4,0,66.7,14.2059,2501876,gaz,0,Logements collectifs
588,48.8,40.9,6.8,1.1,26.6,1.4,14.4,0,48.9,10.0965,2502922,gaz,0,Logements collectifs
589,48.8,40.9,6.8,1.2,26.6,1.4,14.4,0,48.9,10.0722,2502922,gaz,0,Logements collectifs
590,48.8,40.9,6.8,1.2,26.6,1.4,14.4,0,48.9,10.0722,2502922,gaz,0,Logements collectifs
591,45.1,36.4,6.5,2.3,21.3,1.3,28.1,0,66.4,12.484400000000003,2503158,gaz,0,Logements collectifs
592,51.9,43,6.5,2.5,28.1,1.3,25.4,0,70.2,13.433500000000002,2503158,gaz,0,Logements collectifs
593,69,60.6,6.7,1.7,29,1.3,40.2,0,85.5,17.2116,2506464,gaz,0,Logements collectifs
594,83.1,63.3,6.2,13.6,58.3,1.2,2.3,0,64.9,14.8078,2510044,gaz,0,Logements collectifs
595,231.8,193.6,5.4,32.9,166.7,1.1,3.3,0,175.7,41.349999999999994,2510044,gaz,0,Logements collectifs
596,57.7,40.5,6.3,10.9,23.3,1.3,5.2,0,36.4,7.1169,2512374,gaz,0,Logements collectifs
597,86.8,58.1,6,22.7,32.3,1.2,6.4,0,47.2,9.589900000000002,2512374,gaz,0,Logements collectifs
598,42.6,32.9,7,2.6,18.8,1.4,19.2,0,45,9.3454,2512585,gaz,0,Logements collectifs
599,49.1,39.3,6.9,2.8,27,1.4,19.9,0,55,11.5301,2512585,gaz,0,Logements collectifs
600,51.8,42,6.9,3,24.3,1.4,19.3,0,50.7,10.719000000000001,2512585,gaz,0,Logements collectifs
601,51.8,42,6.9,3,24.3,1.4,19.3,0,50.7,10.694700000000001,2512585,gaz,0,Logements collectifs
602,42.9,36,0,6.9,15,1.3,1.1,0,41.4,1.3846,2513546,elec,0,Logements collectifs
603,42.9,36,0,6.9,15,1.3,1.1,0,41.4,1.3846,2513582,elec,0,Logements collectifs
604,82.7,70.8,6.8,5.2,40.7,1.4,27.2,0,76.9,16.699299999999997,2513667,gaz,0,Logements collectifs
605,33.4,23.6,0,9.9,8,1.4,2.7,0,29.7,0.9553,2513848,elec,0,Logements collectifs
606,82.6,69.8,6.8,6.1,39,1.4,19.7,0,64,14.3386,2514366,gaz,0,Logements collectifs
607,80,66.8,6.7,6.5,40.2,1.3,17.8,0,63.2,14.168,2514366,gaz,0,Logements collectifs
608,80.1,65.8,6.7,7.6,38.8,1.3,22.2,0,66.6,14.8791,2514366,gaz,0,Logements collectifs
609,54.4,36.2,6.8,11.4,26.5,1.4,19.5,0,52,11.149799999999999,2514417,gaz,0,Logements collectifs
610,56.5,45.2,0,11.3,21,1.4,1.5,0,57.3,1.9171,2514706,elec,0,Logements collectifs
611,58.8,30.8,6.7,21.3,14.8,1.3,2.1,0,43.6,1.4402000000000001,2514819,elec,0,Logements collectifs
612,59.1,25.7,6.4,27,12.6,1.3,1.8,0,37.8,1.2469000000000001,2514839,elec,0,Logements collectifs
613,42.9,36,0,6.9,15,1.3,1.1,0,41.4,1.3846,2515261,elec,0,Logements collectifs
615,62.1,49.3,7.5,5.2,31.1,1.5,17.2,0,54.7,11.796800000000001,2517252,gaz,0,Logements collectifs
616,63.1,50.5,7.5,5,29.2,1.5,9,0,44.5,9.360300000000002,2517252,gaz,0,Logements collectifs
617,63.6,52.1,7.5,4,31.2,1.5,15.1,0,52.3,11.2979,2517252,gaz,0,Logements collectifs
619,59.5,57.8,0,1.7,28.9,1.3,23.8,0,60.7,12.866200000000001,2518011,gaz,0,Logements collectifs
620,58.5,51,6.1,1.4,40.8,1.2,1.3,0,48,10.334299999999999,2519131,gaz,0,Logements collectifs
621,34.8,16.2,6.6,12,13.1,1.3,17.8,0,37.5,7.468499999999999,2521246,gaz,0,Logements collectifs
623,79.8,61.5,6.8,11.5,32.6,1.4,16.7,0,59.2,11.6403,2521930,gaz,0,Logements collectifs
624,77.5,58.9,6.9,11.7,31.2,1.4,20.3,0,66.4,11.6145,2521930,gaz,0,Logements collectifs
625,68.1,53,7.2,7.8,28.8,1.4,18.4,0,54.6,11.601700000000001,2521930,gaz,0,Logements collectifs
